%!Adobe-FontList 1.19
%Locale:0x409

%BeginFont
Handler:DirectoryHandler
FontType:Type1
FontName:UniversLTStd-Cn
FamilyName:Univers LT Std
StyleName:57 Condensed
MenuName:Univers LT Std 57 Cn
StyleBits:0
WeightClass:400
WidthClass:3
AngleClass:0
FullName:Univers LT Std 57 Condensed
WritingScript:Roman
OutlineFileName:\UniversLTStd-Cn.otf
DataFormat:sfntData
UsesStandardEncoding:yes
isCFF:yes
hasSVG:no
VariableFontType:NonVariableFont
FileLength:27400
FileModTime:1075178212
NameArray:0,Mac,18,Univers LT Std 57 Cn
NameArray:0,Mac,4,Univers LT Std 57 Condensed
NameArray:0,Win,1,Univers LT Std 57 Cn
NameArray:0,Win,16,Univers LT Std
%EndFont

%BeginFont
Handler:DirectoryHandler
FontType:Type1
FontName:UniversLTStd-LightCn
FamilyName:Univers LT Std
StyleName:47 Light Condensed
MenuName:Univers LT Std 47 Cn Lt
StyleBits:0
WeightClass:300
WidthClass:3
AngleClass:0
FullName:Univers LT Std 47 Light Condensed
WritingScript:Roman
OutlineFileName:\UniversLTStd-LightCn.otf
DataFormat:sfntData
UsesStandardEncoding:yes
isCFF:yes
hasSVG:no
VariableFontType:NonVariableFont
FileLength:27616
FileModTime:1075178212
NameArray:0,Mac,18,Univers LT Std 47 Cn Lt
NameArray:0,Mac,4,Univers LT Std 47 Light Condensed
NameArray:0,Win,1,Univers LT Std 47 Cn Lt
NameArray:0,Win,16,Univers LT Std
%EndFont

%BeginFont
Handler:DirectoryHandler
FontType:Type1
FontName:UniversLTStd-BoldCn
FamilyName:Univers LT Std
StyleName:67 Bold Condensed
MenuName:Univers LT Std 47 Cn Lt
StyleBits:2
WeightClass:700
WidthClass:3
AngleClass:0
FullName:Univers LT Std 67 Bold Condensed
WritingScript:Roman
OutlineFileName:\UniversLTStd-BoldCn.otf
DataFormat:sfntData
UsesStandardEncoding:yes
isCFF:yes
hasSVG:no
VariableFontType:NonVariableFont
FileLength:28012
FileModTime:1075178212
NameArray:0,Mac,18,Univers LT Std 67 Cn Bold
NameArray:0,Mac,4,Univers LT Std 67 Bold Condensed
NameArray:0,Win,1,Univers LT Std 47 Cn Lt
NameArray:0,Win,16,Univers LT Std
%EndFont

%BeginFont
Handler:DirectoryHandler
FontType:Type1
FontName:UniversLTStd-XBlack
FamilyName:Univers LT Std
StyleName:85 Extra Black
MenuName:Univers LT Std 85 XBlk
StyleBits:0
WeightClass:950
WidthClass:5
AngleClass:0
FullName:Univers LT Std 85 Extra Black
WritingScript:Roman
OutlineFileName:\UniversLTStd-XBlack.otf
DataFormat:sfntData
UsesStandardEncoding:yes
isCFF:yes
hasSVG:no
VariableFontType:NonVariableFont
FileLength:31308
FileModTime:1075178212
NameArray:0,Mac,18,Univers LT Std 85 XBlk
NameArray:0,Mac,4,Univers LT Std 85 Extra Black
NameArray:0,Win,1,Univers LT Std 85 XBlk
NameArray:0,Win,16,Univers LT Std
%EndFont

%BeginFont
Handler:DirectoryHandler
FontType:Type1
FontName:UniversLTStd-BoldCnObl
FamilyName:Univers LT Std
StyleName:67 Bold Condensed Oblique
MenuName:Univers LT Std 47 Cn Lt
StyleBits:3
WeightClass:700
WidthClass:3
AngleClass:1
FullName:Univers LT Std 67 Bold Condensed Oblique
WritingScript:Roman
OutlineFileName:\UniversLTStd-BoldCnObl.otf
DataFormat:sfntData
UsesStandardEncoding:yes
isCFF:yes
hasSVG:no
VariableFontType:NonVariableFont
FileLength:29208
FileModTime:1075178212
NameArray:0,Mac,18,Univers LT Std 67 Cn Bold Obl
NameArray:0,Mac,4,Univers LT Std 67 Bold Condensed Oblique
NameArray:0,Win,1,Univers LT Std 47 Cn Lt
NameArray:0,Win,16,Univers LT Std
%EndFont

%BeginFont
Handler:DirectoryHandler
FontType:Type1
FontName:UniversLTStd-Bold
FamilyName:Univers LT Std
StyleName:65 Bold
MenuName:Univers LT Std 45 Light
StyleBits:2
WeightClass:700
WidthClass:5
AngleClass:0
FullName:Univers LT Std 65 Bold
WritingScript:Roman
OutlineFileName:\UniversLTStd-Bold.otf
DataFormat:sfntData
UsesStandardEncoding:yes
isCFF:yes
hasSVG:no
VariableFontType:NonVariableFont
FileLength:34720
FileModTime:1075178212
NameArray:0,Mac,4,Univers LT Std 65 Bold
NameArray:0,Win,1,Univers LT Std 45 Light
NameArray:0,Win,16,Univers LT Std
%EndFont

